<?xml version="1.0" encoding="utf-8"?>
<!-- This URDF was automatically created by SolidWorks to URDF Exporter! Originally created by Stephen Brawner (brawner@gmail.com) 
     Commit Version: 1.6.0-4-g7f85cfe  Build Version: 1.6.7995.38578
     For more information, please see http://wiki.ros.org/sw_urdf_exporter -->
<robot
  name="bus_model">
  <link
    name="base_link">
    <inertial>
      <origin
        xyz="-5.06008652673198 1.36528391938327 1.23484858688687"
        rpy="0 0 0" />
      <mass
        value="224646.52855389" />
      <inertia
        ixx="283149.864269587"
        ixy="18595.598045105"
        ixz="30051.9834608489"
        iyy="2264480.49532905"
        iyz="3660.20711044208"
        izz="2280604.7303896" />
    </inertial>
    <visual>
      <origin
        xyz="0 0 0"
        rpy="0 0 0" />
      <geometry>
        <mesh
          filename="package://bus_model/meshes/base_link.STL" />
      </geometry>
      <material
        name="">
        <color
          rgba="0.776470588235294 0.756862745098039 0.737254901960784 1" />
      </material>
    </visual>
    <collision>
      <origin
        xyz="0 0 0"
        rpy="0 0 0" />
      <geometry>
        <mesh
          filename="package://bus_model/meshes/base_link.STL" />
      </geometry>
    </collision>
  </link>
  <link
    name="front_left">
    <inertial>
      <origin
        xyz="0 -0.127 0"
        rpy="0 0 0" />
      <mass
        value="85.379" />
      <inertia
        ixx="2.7272"
        ixy="-5.8749E-17"
        ixz="1.7625E-16"
        iyy="4.6048"
        iyz="-8.8124E-17"
        izz="2.7272" />
    </inertial>
    <visual>
      <origin
        xyz="0 0 0"
        rpy="0 0 0" />
      <geometry>
        <mesh
          filename="package://bus_model/meshes/front_left.STL" />
      </geometry>
      <material
        name="">
        <color
          rgba="0.29804 0.29804 0.29804 1" />
      </material>
    </visual>
    <collision>
      <origin
        xyz="0 0 0"
        rpy="0 0 0" />
      <geometry>
        <mesh
          filename="package://bus_model/meshes/front_left.STL" />
      </geometry>
    </collision>
  </link>
  <joint
    name="spin_l"
    type="fixed">
    <origin
      xyz="-8.7122 -2.413 0.1778"
      rpy="3.1416 0 0" />
    <parent
      link="base_link" />
    <child
      link="front_left" />
    <axis
      xyz="0 0 0" />
  </joint>
  <link
    name="front_right">
    <inertial>
      <origin
        xyz="0 -0.127 -2.7756E-17"
        rpy="0 0 0" />
      <mass
        value="85.379" />
      <inertia
        ixx="2.7272"
        ixy="-5.8749E-17"
        ixz="1.7625E-16"
        iyy="4.6048"
        iyz="-5.8749E-17"
        izz="2.7272" />
    </inertial>
    <visual>
      <origin
        xyz="0 0 0"
        rpy="0 0 0" />
      <geometry>
        <mesh
          filename="package://bus_model/meshes/front_right.STL" />
      </geometry>
      <material
        name="">
        <color
          rgba="0.29804 0.29804 0.29804 1" />
      </material>
    </visual>
    <collision>
      <origin
        xyz="0 0 0"
        rpy="0 0 0" />
      <geometry>
        <mesh
          filename="package://bus_model/meshes/front_right.STL" />
      </geometry>
    </collision>
  </link>
  <joint
    name="spin_fr"
    type="fixed">
    <origin
      xyz="-8.7122 0 0.1778"
      rpy="0 0 0" />
    <parent
      link="base_link" />
    <child
      link="front_right" />
    <axis
      xyz="0 0 0" />
  </joint>
  <link
    name="back_right">
    <inertial>
      <origin
        xyz="0 -0.127 2.7756E-17"
        rpy="0 0 0" />
      <mass
        value="85.379" />
      <inertia
        ixx="2.7272"
        ixy="-2.9375E-17"
        ixz="1.175E-16"
        iyy="4.6048"
        iyz="-5.8749E-17"
        izz="2.7272" />
    </inertial>
    <visual>
      <origin
        xyz="0 0 0"
        rpy="0 0 0" />
      <geometry>
        <mesh
          filename="package://bus_model/meshes/back_right.STL" />
      </geometry>
      <material
        name="">
        <color
          rgba="0.29804 0.29804 0.29804 1" />
      </material>
    </visual>
    <collision>
      <origin
        xyz="0 0 0"
        rpy="0 0 0" />
      <geometry>
        <mesh
          filename="package://bus_model/meshes/back_right.STL" />
      </geometry>
    </collision>
  </link>
  <joint
    name="spin_br"
    type="fixed">
    <origin
      xyz="-1.397 0 0.1778"
      rpy="0 0 0" />
    <parent
      link="base_link" />
    <child
      link="back_right" />
    <axis
      xyz="0 1 0" />
  </joint>
  <link
    name="back_left">
    <inertial>
      <origin
        xyz="2.2204E-16 0.127 5.5511E-17"
        rpy="0 0 0" />
      <mass
        value="85.379" />
      <inertia
        ixx="2.7272"
        ixy="-2.9375E-17"
        ixz="1.7625E-16"
        iyy="4.6048"
        iyz="-8.8124E-17"
        izz="2.7272" />
    </inertial>
    <visual>
      <origin
        xyz="0 0 0"
        rpy="0 0 0" />
      <geometry>
        <mesh
          filename="package://bus_model/meshes/back_left.STL" />
      </geometry>
      <material
        name="">
        <color
          rgba="0.29804 0.29804 0.29804 1" />
      </material>
    </visual>
    <collision>
      <origin
        xyz="0 0 0"
        rpy="0 0 0" />
      <geometry>
        <mesh
          filename="package://bus_model/meshes/back_left.STL" />
      </geometry>
    </collision>
  </link>
  <joint
    name="spin_bl"
    type="fixed">
    <origin
      xyz="-1.397 -2.159 0.1778"
      rpy="3.1416 0 0" />
    <parent
      link="base_link" />
    <child
      link="back_left" />
    <axis
      xyz="0 1 0" />
  </joint>
</robot>